EESchema Schematic File Version 4
EELAYER 30 0
EELAYER END
$Descr A4 11693 8268
encoding utf-8
Sheet 1 2
Title ""
Date ""
Rev ""
Comp ""
Comment1 ""
Comment2 ""
Comment3 ""
Comment4 ""
$EndDescr
$Sheet
S 2000 2000 2000 1000
U 5E87A375
F0 "Trigger timer" 50
F1 "TriggerTimer.sch" 50
$EndSheet
$EndSCHEMATC
