EESchema Schematic File Version 4
EELAYER 30 0
EELAYER END
$Descr A4 11693 8268
encoding utf-8
Sheet 2 2
Title ""
Date ""
Rev ""
Comp ""
Comment1 ""
Comment2 ""
Comment3 ""
Comment4 ""
$EndDescr
$Comp
L power:GNDA #PWR0101
U 1 1 5E884738
P 5500 3650
F 0 "#PWR0101" H 5500 3400 50  0001 C CNN
F 1 "GNDA" H 5505 3477 50  0000 C CNN
F 2 "" H 5500 3650 50  0001 C CNN
F 3 "" H 5500 3650 50  0001 C CNN
	1    5500 3650
	-1   0    0    -1  
$EndComp
$Comp
L power:GNDA #PWR0102
U 1 1 5E884927
P 5400 3650
F 0 "#PWR0102" H 5400 3400 50  0001 C CNN
F 1 "GNDA" H 5405 3477 50  0000 C CNN
F 2 "" H 5400 3650 50  0001 C CNN
F 3 "" H 5400 3650 50  0001 C CNN
	1    5400 3650
	-1   0    0    -1  
$EndComp
$Comp
L power:GNDA #PWR0103
U 1 1 5E885C28
P 5150 3650
F 0 "#PWR0103" H 5150 3400 50  0001 C CNN
F 1 "GNDA" H 5155 3477 50  0000 C CNN
F 2 "" H 5150 3650 50  0001 C CNN
F 3 "" H 5150 3650 50  0001 C CNN
	1    5150 3650
	1    0    0    -1  
$EndComp
$Comp
L power:GNDA #PWR0104
U 1 1 5E885C2E
P 5250 3650
F 0 "#PWR0104" H 5250 3400 50  0001 C CNN
F 1 "GNDA" H 5255 3477 50  0000 C CNN
F 2 "" H 5250 3650 50  0001 C CNN
F 3 "" H 5250 3650 50  0001 C CNN
	1    5250 3650
	1    0    0    -1  
$EndComp
$Comp
L power:GNDA #PWR0105
U 1 1 5E88A29E
P 5800 2850
F 0 "#PWR0105" H 5800 2600 50  0001 C CNN
F 1 "GNDA" H 5805 2677 50  0000 C CNN
F 2 "" H 5800 2850 50  0001 C CNN
F 3 "" H 5800 2850 50  0001 C CNN
	1    5800 2850
	1    0    0    -1  
$EndComp
$Comp
L power:GNDA #PWR0106
U 1 1 5E88A2A4
P 5900 2850
F 0 "#PWR0106" H 5900 2600 50  0001 C CNN
F 1 "GNDA" H 5905 2677 50  0000 C CNN
F 2 "" H 5900 2850 50  0001 C CNN
F 3 "" H 5900 2850 50  0001 C CNN
	1    5900 2850
	1    0    0    -1  
$EndComp
$Comp
L power:GNDA #PWR0107
U 1 1 5E88A2B0
P 4850 2850
F 0 "#PWR0107" H 4850 2600 50  0001 C CNN
F 1 "GNDA" H 4855 2677 50  0000 C CNN
F 2 "" H 4850 2850 50  0001 C CNN
F 3 "" H 4850 2850 50  0001 C CNN
	1    4850 2850
	-1   0    0    -1  
$EndComp
$Comp
L power:GNDA #PWR0108
U 1 1 5E88A2B6
P 4750 2850
F 0 "#PWR0108" H 4750 2600 50  0001 C CNN
F 1 "GNDA" H 4755 2677 50  0000 C CNN
F 2 "" H 4750 2850 50  0001 C CNN
F 3 "" H 4750 2850 50  0001 C CNN
	1    4750 2850
	-1   0    0    -1  
$EndComp
Wire Wire Line
	5150 2550 5450 2550
Wire Wire Line
	5650 2550 5650 2450
Wire Wire Line
	5650 2450 5800 2450
Wire Wire Line
	5500 2650 5350 2650
Wire Wire Line
	5350 2650 5350 2450
$Comp
L Device:R_Small R1
U 1 1 5E88CFBC
P 4850 2350
F 0 "R1" H 4792 2304 50  0000 R CNN
F 1 "220" H 4792 2395 50  0000 R CNN
F 2 "Resistor_SMD:R_0402_1005Metric" H 4850 2350 50  0001 C CNN
F 3 "~" H 4850 2350 50  0001 C CNN
	1    4850 2350
	1    0    0    1   
$EndComp
Connection ~ 4850 2450
$Comp
L Device:R_Small R4
U 1 1 5E88E761
P 5800 2350
F 0 "R4" H 5741 2304 50  0000 R CNN
F 1 "220" H 5741 2395 50  0000 R CNN
F 2 "Resistor_SMD:R_0402_1005Metric" H 5800 2350 50  0001 C CNN
F 3 "~" H 5800 2350 50  0001 C CNN
	1    5800 2350
	-1   0    0    1   
$EndComp
Connection ~ 5800 2450
$Comp
L power:+3.3VA #PWR0109
U 1 1 5E88EDB1
P 5800 2250
F 0 "#PWR0109" H 5800 2100 50  0001 C CNN
F 1 "+3.3VA" H 5815 2423 50  0000 C CNN
F 2 "" H 5800 2250 50  0001 C CNN
F 3 "" H 5800 2250 50  0001 C CNN
	1    5800 2250
	1    0    0    -1  
$EndComp
$Comp
L power:+3.3VA #PWR0110
U 1 1 5E88F10C
P 4850 2250
F 0 "#PWR0110" H 4850 2100 50  0001 C CNN
F 1 "+3.3VA" H 4865 2423 50  0000 C CNN
F 2 "" H 4850 2250 50  0001 C CNN
F 3 "" H 4850 2250 50  0001 C CNN
	1    4850 2250
	-1   0    0    -1  
$EndComp
$Comp
L Device:R_Small R3
U 1 1 5E88F85D
P 5550 2550
F 0 "R3" V 5354 2550 50  0000 C CNN
F 1 "220" V 5445 2550 50  0000 C CNN
F 2 "Resistor_SMD:R_0402_1005Metric" H 5550 2550 50  0001 C CNN
F 3 "~" H 5550 2550 50  0001 C CNN
	1    5550 2550
	0    -1   1    0   
$EndComp
$Comp
L Device:R_Small R2
U 1 1 5E89000A
P 5250 2450
F 0 "R2" V 5054 2450 50  0000 C CNN
F 1 "220" V 5145 2450 50  0000 C CNN
F 2 "Resistor_SMD:R_0402_1005Metric" H 5250 2450 50  0001 C CNN
F 3 "~" H 5250 2450 50  0001 C CNN
	1    5250 2450
	0    -1   1    0   
$EndComp
Wire Wire Line
	5150 2450 4850 2450
Wire Wire Line
	5500 3250 5500 2650
$Comp
L Device:R_Small R16
U 1 1 5E8A412D
P 6100 2450
F 0 "R16" V 5904 2450 50  0000 C CNN
F 1 "470" V 5995 2450 50  0000 C CNN
F 2 "Resistor_SMD:R_0402_1005Metric" H 6100 2450 50  0001 C CNN
F 3 "~" H 6100 2450 50  0001 C CNN
	1    6100 2450
	0    -1   1    0   
$EndComp
Wire Wire Line
	6000 2450 5800 2450
$Comp
L power:GNDA #PWR0111
U 1 1 5E8A5D84
P 6500 2650
F 0 "#PWR0111" H 6500 2400 50  0001 C CNN
F 1 "GNDA" H 6505 2477 50  0000 C CNN
F 2 "" H 6500 2650 50  0001 C CNN
F 3 "" H 6500 2650 50  0001 C CNN
	1    6500 2650
	1    0    0    -1  
$EndComp
$Comp
L power:GNDA #PWR0112
U 1 1 5E8A60A9
P 6600 2650
F 0 "#PWR0112" H 6600 2400 50  0001 C CNN
F 1 "GNDA" H 6605 2477 50  0000 C CNN
F 2 "" H 6600 2650 50  0001 C CNN
F 3 "" H 6600 2650 50  0001 C CNN
	1    6600 2650
	1    0    0    -1  
$EndComp
$Comp
L Device:C_Small C1
U 1 1 5E8A667B
P 6500 2150
F 0 "C1" H 6592 2196 50  0000 L CNN
F 1 "330p" H 6592 2105 50  0000 L CNN
F 2 "Resistor_SMD:R_0402_1005Metric" H 6500 2150 50  0001 C CNN
F 3 "~" H 6500 2150 50  0001 C CNN
	1    6500 2150
	1    0    0    -1  
$EndComp
$Comp
L power:+10V #PWR0113
U 1 1 5E8A841B
P 6500 2050
F 0 "#PWR0113" H 6500 1900 50  0001 C CNN
F 1 "+10V" H 6515 2223 50  0000 C CNN
F 2 "" H 6500 2050 50  0001 C CNN
F 3 "" H 6500 2050 50  0001 C CNN
	1    6500 2050
	1    0    0    -1  
$EndComp
$Comp
L Device:R_Small R14
U 1 1 5E8AA03F
P 4650 3450
F 0 "R14" V 4454 3450 50  0000 C CNN
F 1 "330" V 4545 3450 50  0000 C CNN
F 2 "Resistor_SMD:R_0402_1005Metric" H 4650 3450 50  0001 C CNN
F 3 "~" H 4650 3450 50  0001 C CNN
	1    4650 3450
	0    -1   1    0   
$EndComp
Wire Wire Line
	4850 3450 4750 3450
$Comp
L Connector:Conn_Coaxial J2
U 1 1 5E8AB1C4
P 4150 3450
F 0 "J2" H 4078 3688 50  0000 C CNN
F 1 "Stop (CLK)" H 4078 3597 50  0000 C CNN
F 2 "Connector_Coaxial:SMA_Molex_73251-1153_EdgeMount_Horizontal" H 4150 3450 50  0001 C CNN
F 3 " ~" H 4150 3450 50  0001 C CNN
	1    4150 3450
	-1   0    0    -1  
$EndComp
Wire Wire Line
	4350 3450 4450 3450
$Comp
L power:GNDA #PWR0114
U 1 1 5E8AD2A0
P 4150 3650
F 0 "#PWR0114" H 4150 3400 50  0001 C CNN
F 1 "GNDA" H 4155 3477 50  0000 C CNN
F 2 "" H 4150 3650 50  0001 C CNN
F 3 "" H 4150 3650 50  0001 C CNN
	1    4150 3650
	1    0    0    -1  
$EndComp
$Comp
L Connector:Conn_Coaxial J3
U 1 1 5E8ADCCE
P 6500 3450
F 0 "J3" H 6600 3425 50  0000 L CNN
F 1 "Start (Trigger)" H 6600 3334 50  0000 L CNN
F 2 "Connector_Coaxial:SMA_Molex_73251-1153_EdgeMount_Horizontal" H 6500 3450 50  0001 C CNN
F 3 " ~" H 6500 3450 50  0001 C CNN
	1    6500 3450
	1    0    0    -1  
$EndComp
$Comp
L power:GNDA #PWR0115
U 1 1 5E8AEF64
P 6500 3650
F 0 "#PWR0115" H 6500 3400 50  0001 C CNN
F 1 "GNDA" H 6505 3477 50  0000 C CNN
F 2 "" H 6500 3650 50  0001 C CNN
F 3 "" H 6500 3650 50  0001 C CNN
	1    6500 3650
	1    0    0    -1  
$EndComp
Wire Wire Line
	6300 3450 6100 3450
$Comp
L Device:R_Small R15
U 1 1 5E8B625E
P 6000 3450
F 0 "R15" V 5804 3450 50  0000 C CNN
F 1 "220" V 5895 3450 50  0000 C CNN
F 2 "Resistor_SMD:R_0402_1005Metric" H 6000 3450 50  0001 C CNN
F 3 "~" H 6000 3450 50  0001 C CNN
	1    6000 3450
	0    -1   1    0   
$EndComp
Wire Wire Line
	5900 3450 5800 3450
$Comp
L Device:R_Small R13
U 1 1 5E8C2CB1
P 4450 3100
F 0 "R13" H 4391 3146 50  0000 R CNN
F 1 "1k" H 4391 3055 50  0000 R CNN
F 2 "Resistor_SMD:R_0402_1005Metric" H 4450 3100 50  0001 C CNN
F 3 "~" H 4450 3100 50  0001 C CNN
	1    4450 3100
	-1   0    0    -1  
$EndComp
$Comp
L Device:R_Small R12
U 1 1 5E8C4653
P 4450 2900
F 0 "R12" H 4391 2946 50  0000 R CNN
F 1 "1k" H 4391 2855 50  0000 R CNN
F 2 "Resistor_SMD:R_0402_1005Metric" H 4450 2900 50  0001 C CNN
F 3 "~" H 4450 2900 50  0001 C CNN
	1    4450 2900
	-1   0    0    -1  
$EndComp
Wire Wire Line
	4450 3450 4450 3200
Connection ~ 4450 3450
Wire Wire Line
	4450 3450 4550 3450
Wire Wire Line
	4450 2800 4450 2450
Wire Wire Line
	4450 2450 4850 2450
$Comp
L power:GNDA #PWR0116
U 1 1 5E8CF990
P 3650 3200
F 0 "#PWR0116" H 3650 2950 50  0001 C CNN
F 1 "GNDA" H 3655 3027 50  0000 C CNN
F 2 "" H 3650 3200 50  0001 C CNN
F 3 "" H 3650 3200 50  0001 C CNN
	1    3650 3200
	-1   0    0    -1  
$EndComp
$Comp
L power:GNDA #PWR0117
U 1 1 5E8CF996
P 3550 3200
F 0 "#PWR0117" H 3550 2950 50  0001 C CNN
F 1 "GNDA" H 3555 3027 50  0000 C CNN
F 2 "" H 3550 3200 50  0001 C CNN
F 3 "" H 3550 3200 50  0001 C CNN
	1    3550 3200
	-1   0    0    -1  
$EndComp
$Comp
L power:GNDA #PWR0118
U 1 1 5E8D127A
P 3150 3000
F 0 "#PWR0118" H 3150 2750 50  0001 C CNN
F 1 "GNDA" H 3155 2827 50  0000 C CNN
F 2 "" H 3150 3000 50  0001 C CNN
F 3 "" H 3150 3000 50  0001 C CNN
	1    3150 3000
	-1   0    0    -1  
$EndComp
$Comp
L power:GNDA #PWR0119
U 1 1 5E8D1280
P 3050 3000
F 0 "#PWR0119" H 3050 2750 50  0001 C CNN
F 1 "GNDA" H 3055 2827 50  0000 C CNN
F 2 "" H 3050 3000 50  0001 C CNN
F 3 "" H 3050 3000 50  0001 C CNN
	1    3050 3000
	-1   0    0    -1  
$EndComp
Wire Wire Line
	4450 3000 3950 3000
Connection ~ 4450 3000
Wire Wire Line
	3650 2800 3450 2800
$Comp
L Device:R_Small R10
U 1 1 5E8D2BD0
P 3650 2700
F 0 "R10" H 3591 2746 50  0000 R CNN
F 1 "1k" H 3591 2655 50  0000 R CNN
F 2 "Resistor_SMD:R_0402_1005Metric" H 3650 2700 50  0001 C CNN
F 3 "~" H 3650 2700 50  0001 C CNN
	1    3650 2700
	-1   0    0    -1  
$EndComp
$Comp
L power:+3.3VA #PWR0120
U 1 1 5E8D3175
P 3650 2600
F 0 "#PWR0120" H 3650 2450 50  0001 C CNN
F 1 "+3.3VA" H 3665 2773 50  0000 C CNN
F 2 "" H 3650 2600 50  0001 C CNN
F 3 "" H 3650 2600 50  0001 C CNN
	1    3650 2600
	-1   0    0    -1  
$EndComp
$Comp
L power:GNDA #PWR0121
U 1 1 5E8DB270
P 3450 2150
F 0 "#PWR0121" H 3450 1900 50  0001 C CNN
F 1 "GNDA" H 3455 1977 50  0000 C CNN
F 2 "" H 3450 2150 50  0001 C CNN
F 3 "" H 3450 2150 50  0001 C CNN
	1    3450 2150
	1    0    0    -1  
$EndComp
$Comp
L power:GNDA #PWR0122
U 1 1 5E8DB276
P 3550 2150
F 0 "#PWR0122" H 3550 1900 50  0001 C CNN
F 1 "GNDA" H 3555 1977 50  0000 C CNN
F 2 "" H 3550 2150 50  0001 C CNN
F 3 "" H 3550 2150 50  0001 C CNN
	1    3550 2150
	1    0    0    -1  
$EndComp
$Comp
L power:GNDA #PWR0123
U 1 1 5E8DB282
P 2500 2150
F 0 "#PWR0123" H 2500 1900 50  0001 C CNN
F 1 "GNDA" H 2505 1977 50  0000 C CNN
F 2 "" H 2500 2150 50  0001 C CNN
F 3 "" H 2500 2150 50  0001 C CNN
	1    2500 2150
	-1   0    0    -1  
$EndComp
$Comp
L power:GNDA #PWR0124
U 1 1 5E8DB288
P 2400 2150
F 0 "#PWR0124" H 2400 1900 50  0001 C CNN
F 1 "GNDA" H 2405 1977 50  0000 C CNN
F 2 "" H 2400 2150 50  0001 C CNN
F 3 "" H 2400 2150 50  0001 C CNN
	1    2400 2150
	-1   0    0    -1  
$EndComp
Wire Wire Line
	2800 1850 3100 1850
Wire Wire Line
	3300 1850 3300 1750
Wire Wire Line
	3300 1750 3450 1750
Wire Wire Line
	3150 1950 3000 1950
Wire Wire Line
	3000 1950 3000 1750
$Comp
L Device:R_Small R6
U 1 1 5E8DB294
P 2500 1650
F 0 "R6" H 2442 1604 50  0000 R CNN
F 1 "220" H 2442 1695 50  0000 R CNN
F 2 "Resistor_SMD:R_0402_1005Metric" H 2500 1650 50  0001 C CNN
F 3 "~" H 2500 1650 50  0001 C CNN
	1    2500 1650
	1    0    0    1   
$EndComp
$Comp
L Device:R_Small R9
U 1 1 5E8DB29B
P 3450 1650
F 0 "R9" H 3391 1604 50  0000 R CNN
F 1 "220" H 3391 1695 50  0000 R CNN
F 2 "Resistor_SMD:R_0402_1005Metric" H 3450 1650 50  0001 C CNN
F 3 "~" H 3450 1650 50  0001 C CNN
	1    3450 1650
	-1   0    0    1   
$EndComp
Connection ~ 3450 1750
$Comp
L power:+3.3VA #PWR0125
U 1 1 5E8DB2A2
P 3450 1550
F 0 "#PWR0125" H 3450 1400 50  0001 C CNN
F 1 "+3.3VA" H 3465 1723 50  0000 C CNN
F 2 "" H 3450 1550 50  0001 C CNN
F 3 "" H 3450 1550 50  0001 C CNN
	1    3450 1550
	1    0    0    -1  
$EndComp
$Comp
L power:+3.3VA #PWR0126
U 1 1 5E8DB2A8
P 2500 1550
F 0 "#PWR0126" H 2500 1400 50  0001 C CNN
F 1 "+3.3VA" H 2515 1723 50  0000 C CNN
F 2 "" H 2500 1550 50  0001 C CNN
F 3 "" H 2500 1550 50  0001 C CNN
	1    2500 1550
	-1   0    0    -1  
$EndComp
$Comp
L Device:R_Small R8
U 1 1 5E8DB2AE
P 3200 1850
F 0 "R8" V 3004 1850 50  0000 C CNN
F 1 "220" V 3095 1850 50  0000 C CNN
F 2 "Resistor_SMD:R_0402_1005Metric" H 3200 1850 50  0001 C CNN
F 3 "~" H 3200 1850 50  0001 C CNN
	1    3200 1850
	0    -1   1    0   
$EndComp
$Comp
L Device:R_Small R7
U 1 1 5E8DB2B4
P 2900 1750
F 0 "R7" V 2704 1750 50  0000 C CNN
F 1 "220" V 2795 1750 50  0000 C CNN
F 2 "Resistor_SMD:R_0402_1005Metric" H 2900 1750 50  0001 C CNN
F 3 "~" H 2900 1750 50  0001 C CNN
	1    2900 1750
	0    -1   1    0   
$EndComp
Wire Wire Line
	2800 1750 2500 1750
Wire Wire Line
	3150 2600 3150 1950
$Comp
L power:GNDA #PWR0127
U 1 1 5E907680
P 2800 3000
F 0 "#PWR0127" H 2800 2750 50  0001 C CNN
F 1 "GNDA" H 2805 2827 50  0000 C CNN
F 2 "" H 2800 3000 50  0001 C CNN
F 3 "" H 2800 3000 50  0001 C CNN
	1    2800 3000
	1    0    0    -1  
$EndComp
$Comp
L power:GNDA #PWR0128
U 1 1 5E907686
P 2900 3000
F 0 "#PWR0128" H 2900 2750 50  0001 C CNN
F 1 "GNDA" H 2905 2827 50  0000 C CNN
F 2 "" H 2900 3000 50  0001 C CNN
F 3 "" H 2900 3000 50  0001 C CNN
	1    2900 3000
	1    0    0    -1  
$EndComp
$Comp
L Connector:Conn_Coaxial J1
U 1 1 5E9107F9
P 1800 2800
F 0 "J1" H 1728 3038 50  0000 C CNN
F 1 "Reset" H 1728 2947 50  0000 C CNN
F 2 "Connector_Coaxial:SMA_Molex_73251-1153_EdgeMount_Horizontal" H 1800 2800 50  0001 C CNN
F 3 " ~" H 1800 2800 50  0001 C CNN
	1    1800 2800
	-1   0    0    -1  
$EndComp
$Comp
L power:GNDA #PWR0129
U 1 1 5E9107FF
P 1800 3000
F 0 "#PWR0129" H 1800 2750 50  0001 C CNN
F 1 "GNDA" H 1805 2827 50  0000 C CNN
F 2 "" H 1800 3000 50  0001 C CNN
F 3 "" H 1800 3000 50  0001 C CNN
	1    1800 3000
	-1   0    0    -1  
$EndComp
Wire Wire Line
	2000 2800 2200 2800
$Comp
L Device:R_Small R5
U 1 1 5E910806
P 2300 2800
F 0 "R5" V 2104 2800 50  0000 C CNN
F 1 "330" V 2195 2800 50  0000 C CNN
F 2 "Resistor_SMD:R_0402_1005Metric" H 2300 2800 50  0001 C CNN
F 3 "~" H 2300 2800 50  0001 C CNN
	1    2300 2800
	0    1    1    0   
$EndComp
Wire Wire Line
	2400 2800 2500 2800
$Comp
L power:GNDA #PWR0130
U 1 1 5E91B4D8
P 5800 4250
F 0 "#PWR0130" H 5800 4000 50  0001 C CNN
F 1 "GNDA" H 5805 4077 50  0000 C CNN
F 2 "" H 5800 4250 50  0001 C CNN
F 3 "" H 5800 4250 50  0001 C CNN
	1    5800 4250
	1    0    0    -1  
$EndComp
$Comp
L power:GNDA #PWR0131
U 1 1 5E91B4DE
P 5900 4250
F 0 "#PWR0131" H 5900 4000 50  0001 C CNN
F 1 "GNDA" H 5905 4077 50  0000 C CNN
F 2 "" H 5900 4250 50  0001 C CNN
F 3 "" H 5900 4250 50  0001 C CNN
	1    5900 4250
	1    0    0    -1  
$EndComp
Wire Wire Line
	5800 3450 5800 3850
Wire Wire Line
	5500 4050 4000 4050
Wire Wire Line
	4000 4050 4000 1750
$Comp
L Device:R_Small R11
U 1 1 5E923F81
P 3800 1750
F 0 "R11" V 3604 1750 50  0000 C CNN
F 1 "1k" V 3695 1750 50  0000 C CNN
F 2 "Resistor_SMD:R_0402_1005Metric" H 3800 1750 50  0001 C CNN
F 3 "~" H 3800 1750 50  0001 C CNN
	1    3800 1750
	0    -1   1    0   
$EndComp
Wire Wire Line
	4000 1750 3900 1750
Wire Wire Line
	3700 1750 3450 1750
$Comp
L Device:R_Small R19
U 1 1 5E9549FB
P 6300 3550
F 0 "R19" H 6242 3504 50  0000 R CNN
F 1 "68" H 6242 3595 50  0000 R CNN
F 2 "Resistor_SMD:R_0402_1005Metric" H 6300 3550 50  0001 C CNN
F 3 "~" H 6300 3550 50  0001 C CNN
	1    6300 3550
	1    0    0    1   
$EndComp
Connection ~ 6300 3450
$Comp
L power:GNDA #PWR0132
U 1 1 5E955064
P 6300 3650
F 0 "#PWR0132" H 6300 3400 50  0001 C CNN
F 1 "GNDA" H 6305 3477 50  0000 C CNN
F 2 "" H 6300 3650 50  0001 C CNN
F 3 "" H 6300 3650 50  0001 C CNN
	1    6300 3650
	1    0    0    -1  
$EndComp
$Comp
L Device:R_Small R17
U 1 1 5E956014
P 2000 2900
F 0 "R17" H 1941 2854 50  0000 R CNN
F 1 "68" H 1941 2945 50  0000 R CNN
F 2 "Resistor_SMD:R_0402_1005Metric" H 2000 2900 50  0001 C CNN
F 3 "~" H 2000 2900 50  0001 C CNN
	1    2000 2900
	-1   0    0    1   
$EndComp
Connection ~ 2000 2800
$Comp
L power:GNDA #PWR0133
U 1 1 5E95845B
P 2000 3000
F 0 "#PWR0133" H 2000 2750 50  0001 C CNN
F 1 "GNDA" H 2005 2827 50  0000 C CNN
F 2 "" H 2000 3000 50  0001 C CNN
F 3 "" H 2000 3000 50  0001 C CNN
	1    2000 3000
	-1   0    0    -1  
$EndComp
$Comp
L Device:R_Small R18
U 1 1 5E959BB8
P 4350 3550
F 0 "R18" H 4291 3504 50  0000 R CNN
F 1 "68" H 4291 3595 50  0000 R CNN
F 2 "Resistor_SMD:R_0402_1005Metric" H 4350 3550 50  0001 C CNN
F 3 "~" H 4350 3550 50  0001 C CNN
	1    4350 3550
	-1   0    0    1   
$EndComp
Connection ~ 4350 3450
$Comp
L power:GNDA #PWR0134
U 1 1 5E95A2A8
P 4350 3650
F 0 "#PWR0134" H 4350 3400 50  0001 C CNN
F 1 "GNDA" H 4355 3477 50  0000 C CNN
F 2 "" H 4350 3650 50  0001 C CNN
F 3 "" H 4350 3650 50  0001 C CNN
	1    4350 3650
	1    0    0    -1  
$EndComp
$Comp
L Device:C_Small C2
U 1 1 5E9871E4
P 4950 850
F 0 "C2" H 5042 896 50  0000 L CNN
F 1 "10n" H 5042 805 50  0000 L CNN
F 2 "Resistor_SMD:R_0402_1005Metric" H 4950 850 50  0001 C CNN
F 3 "~" H 4950 850 50  0001 C CNN
	1    4950 850 
	1    0    0    -1  
$EndComp
$Comp
L power:+3.3VA #PWR0135
U 1 1 5E988D3D
P 4950 750
F 0 "#PWR0135" H 4950 600 50  0001 C CNN
F 1 "+3.3VA" H 4965 923 50  0000 C CNN
F 2 "" H 4950 750 50  0001 C CNN
F 3 "" H 4950 750 50  0001 C CNN
	1    4950 750 
	-1   0    0    -1  
$EndComp
$Comp
L power:GNDA #PWR0136
U 1 1 5E9894B4
P 4950 950
F 0 "#PWR0136" H 4950 700 50  0001 C CNN
F 1 "GNDA" H 4955 777 50  0000 C CNN
F 2 "" H 4950 950 50  0001 C CNN
F 3 "" H 4950 950 50  0001 C CNN
	1    4950 950 
	1    0    0    -1  
$EndComp
$Comp
L Device:C_Small C3
U 1 1 5E98B2A9
P 5250 850
F 0 "C3" H 5342 896 50  0000 L CNN
F 1 "10n" H 5342 805 50  0000 L CNN
F 2 "Resistor_SMD:R_0402_1005Metric" H 5250 850 50  0001 C CNN
F 3 "~" H 5250 850 50  0001 C CNN
	1    5250 850 
	1    0    0    -1  
$EndComp
$Comp
L power:+3.3VA #PWR0137
U 1 1 5E98B2AF
P 5250 750
F 0 "#PWR0137" H 5250 600 50  0001 C CNN
F 1 "+3.3VA" H 5265 923 50  0000 C CNN
F 2 "" H 5250 750 50  0001 C CNN
F 3 "" H 5250 750 50  0001 C CNN
	1    5250 750 
	-1   0    0    -1  
$EndComp
$Comp
L power:GNDA #PWR0138
U 1 1 5E98B2B5
P 5250 950
F 0 "#PWR0138" H 5250 700 50  0001 C CNN
F 1 "GNDA" H 5255 777 50  0000 C CNN
F 2 "" H 5250 950 50  0001 C CNN
F 3 "" H 5250 950 50  0001 C CNN
	1    5250 950 
	1    0    0    -1  
$EndComp
$Comp
L Device:C_Small C4
U 1 1 5E98BE33
P 5550 850
F 0 "C4" H 5642 896 50  0000 L CNN
F 1 "10n" H 5642 805 50  0000 L CNN
F 2 "Resistor_SMD:R_0402_1005Metric" H 5550 850 50  0001 C CNN
F 3 "~" H 5550 850 50  0001 C CNN
	1    5550 850 
	1    0    0    -1  
$EndComp
$Comp
L power:+3.3VA #PWR0139
U 1 1 5E98BE39
P 5550 750
F 0 "#PWR0139" H 5550 600 50  0001 C CNN
F 1 "+3.3VA" H 5565 923 50  0000 C CNN
F 2 "" H 5550 750 50  0001 C CNN
F 3 "" H 5550 750 50  0001 C CNN
	1    5550 750 
	-1   0    0    -1  
$EndComp
$Comp
L power:GNDA #PWR0140
U 1 1 5E98BE3F
P 5550 950
F 0 "#PWR0140" H 5550 700 50  0001 C CNN
F 1 "GNDA" H 5555 777 50  0000 C CNN
F 2 "" H 5550 950 50  0001 C CNN
F 3 "" H 5550 950 50  0001 C CNN
	1    5550 950 
	1    0    0    -1  
$EndComp
$Comp
L Device:C_Small C5
U 1 1 5E98CCBB
P 5850 850
F 0 "C5" H 5942 896 50  0000 L CNN
F 1 "10n" H 5942 805 50  0000 L CNN
F 2 "Resistor_SMD:R_0402_1005Metric" H 5850 850 50  0001 C CNN
F 3 "~" H 5850 850 50  0001 C CNN
	1    5850 850 
	1    0    0    -1  
$EndComp
$Comp
L power:+3.3VA #PWR0141
U 1 1 5E98CCC1
P 5850 750
F 0 "#PWR0141" H 5850 600 50  0001 C CNN
F 1 "+3.3VA" H 5865 923 50  0000 C CNN
F 2 "" H 5850 750 50  0001 C CNN
F 3 "" H 5850 750 50  0001 C CNN
	1    5850 750 
	-1   0    0    -1  
$EndComp
$Comp
L power:GNDA #PWR0142
U 1 1 5E98CCC7
P 5850 950
F 0 "#PWR0142" H 5850 700 50  0001 C CNN
F 1 "GNDA" H 5855 777 50  0000 C CNN
F 2 "" H 5850 950 50  0001 C CNN
F 3 "" H 5850 950 50  0001 C CNN
	1    5850 950 
	1    0    0    -1  
$EndComp
$Comp
L Device:C_Small C6
U 1 1 5E98DB4A
P 6150 850
F 0 "C6" H 6242 896 50  0000 L CNN
F 1 "10n" H 6242 805 50  0000 L CNN
F 2 "Resistor_SMD:R_0402_1005Metric" H 6150 850 50  0001 C CNN
F 3 "~" H 6150 850 50  0001 C CNN
	1    6150 850 
	1    0    0    -1  
$EndComp
$Comp
L power:+3.3VA #PWR0143
U 1 1 5E98DB50
P 6150 750
F 0 "#PWR0143" H 6150 600 50  0001 C CNN
F 1 "+3.3VA" H 6165 923 50  0000 C CNN
F 2 "" H 6150 750 50  0001 C CNN
F 3 "" H 6150 750 50  0001 C CNN
	1    6150 750 
	-1   0    0    -1  
$EndComp
$Comp
L power:GNDA #PWR0144
U 1 1 5E98DB56
P 6150 950
F 0 "#PWR0144" H 6150 700 50  0001 C CNN
F 1 "GNDA" H 6155 777 50  0000 C CNN
F 2 "" H 6150 950 50  0001 C CNN
F 3 "" H 6150 950 50  0001 C CNN
	1    6150 950 
	1    0    0    -1  
$EndComp
$Comp
L Device:C_Small C7
U 1 1 5E98E8F9
P 6450 850
F 0 "C7" H 6542 896 50  0000 L CNN
F 1 "10n" H 6542 805 50  0000 L CNN
F 2 "Resistor_SMD:R_0402_1005Metric" H 6450 850 50  0001 C CNN
F 3 "~" H 6450 850 50  0001 C CNN
	1    6450 850 
	1    0    0    -1  
$EndComp
$Comp
L power:+3.3VA #PWR0145
U 1 1 5E98E8FF
P 6450 750
F 0 "#PWR0145" H 6450 600 50  0001 C CNN
F 1 "+3.3VA" H 6465 923 50  0000 C CNN
F 2 "" H 6450 750 50  0001 C CNN
F 3 "" H 6450 750 50  0001 C CNN
	1    6450 750 
	-1   0    0    -1  
$EndComp
$Comp
L power:GNDA #PWR0146
U 1 1 5E98E905
P 6450 950
F 0 "#PWR0146" H 6450 700 50  0001 C CNN
F 1 "GNDA" H 6455 777 50  0000 C CNN
F 2 "" H 6450 950 50  0001 C CNN
F 3 "" H 6450 950 50  0001 C CNN
	1    6450 950 
	1    0    0    -1  
$EndComp
$Comp
L Device:C_Small C8
U 1 1 5E98F703
P 6750 850
F 0 "C8" H 6842 896 50  0000 L CNN
F 1 "10n" H 6842 805 50  0000 L CNN
F 2 "Resistor_SMD:R_0402_1005Metric" H 6750 850 50  0001 C CNN
F 3 "~" H 6750 850 50  0001 C CNN
	1    6750 850 
	1    0    0    -1  
$EndComp
$Comp
L power:+3.3VA #PWR0147
U 1 1 5E98F709
P 6750 750
F 0 "#PWR0147" H 6750 600 50  0001 C CNN
F 1 "+3.3VA" H 6765 923 50  0000 C CNN
F 2 "" H 6750 750 50  0001 C CNN
F 3 "" H 6750 750 50  0001 C CNN
	1    6750 750 
	-1   0    0    -1  
$EndComp
$Comp
L power:GNDA #PWR0148
U 1 1 5E98F70F
P 6750 950
F 0 "#PWR0148" H 6750 700 50  0001 C CNN
F 1 "GNDA" H 6755 777 50  0000 C CNN
F 2 "" H 6750 950 50  0001 C CNN
F 3 "" H 6750 950 50  0001 C CNN
	1    6750 950 
	1    0    0    -1  
$EndComp
$Comp
L Device:C_Small C9
U 1 1 5E990607
P 7050 850
F 0 "C9" H 7142 896 50  0000 L CNN
F 1 "10n" H 7142 805 50  0000 L CNN
F 2 "Resistor_SMD:R_0402_1005Metric" H 7050 850 50  0001 C CNN
F 3 "~" H 7050 850 50  0001 C CNN
	1    7050 850 
	1    0    0    -1  
$EndComp
$Comp
L power:+3.3VA #PWR0149
U 1 1 5E99060D
P 7050 750
F 0 "#PWR0149" H 7050 600 50  0001 C CNN
F 1 "+3.3VA" H 7065 923 50  0000 C CNN
F 2 "" H 7050 750 50  0001 C CNN
F 3 "" H 7050 750 50  0001 C CNN
	1    7050 750 
	-1   0    0    -1  
$EndComp
$Comp
L power:GNDA #PWR0150
U 1 1 5E990613
P 7050 950
F 0 "#PWR0150" H 7050 700 50  0001 C CNN
F 1 "GNDA" H 7055 777 50  0000 C CNN
F 2 "" H 7050 950 50  0001 C CNN
F 3 "" H 7050 950 50  0001 C CNN
	1    7050 950 
	1    0    0    -1  
$EndComp
$Comp
L Device:C_Small C10
U 1 1 5E99348A
P 7350 850
F 0 "C10" H 7442 896 50  0000 L CNN
F 1 "10n" H 7442 805 50  0000 L CNN
F 2 "Resistor_SMD:R_0402_1005Metric" H 7350 850 50  0001 C CNN
F 3 "~" H 7350 850 50  0001 C CNN
	1    7350 850 
	1    0    0    -1  
$EndComp
$Comp
L power:GNDA #PWR0151
U 1 1 5E993496
P 7350 950
F 0 "#PWR0151" H 7350 700 50  0001 C CNN
F 1 "GNDA" H 7355 777 50  0000 C CNN
F 2 "" H 7350 950 50  0001 C CNN
F 3 "" H 7350 950 50  0001 C CNN
	1    7350 950 
	1    0    0    -1  
$EndComp
$Comp
L power:+10V #PWR0152
U 1 1 5E99410A
P 7350 750
F 0 "#PWR0152" H 7350 600 50  0001 C CNN
F 1 "+10V" H 7365 923 50  0000 C CNN
F 2 "" H 7350 750 50  0001 C CNN
F 3 "" H 7350 750 50  0001 C CNN
	1    7350 750 
	1    0    0    -1  
$EndComp
Text Label 2000 2800 0    50   ~ 0
Reset
Text Label 6100 3450 0    50   ~ 0
Trig
Text Label 4450 3400 0    50   ~ 0
CLK
$Comp
L Connector_Generic:Conn_01x02 J4
U 1 1 5E9E144A
P 8600 700
F 0 "J4" H 8680 692 50  0000 L CNN
F 1 "Conn_01x02" H 8680 601 50  0000 L CNN
F 2 "Connector_PinHeader_2.54mm:PinHeader_1x02_P2.54mm_Vertical" H 8600 700 50  0001 C CNN
F 3 "~" H 8600 700 50  0001 C CNN
	1    8600 700 
	1    0    0    -1  
$EndComp
$Comp
L Connector_Generic:Conn_01x02 J5
U 1 1 5E9E1F94
P 8600 900
F 0 "J5" H 8680 892 50  0000 L CNN
F 1 "Conn_01x02" H 8680 801 50  0000 L CNN
F 2 "Connector_PinHeader_2.54mm:PinHeader_1x02_P2.54mm_Vertical" H 8600 900 50  0001 C CNN
F 3 "~" H 8600 900 50  0001 C CNN
	1    8600 900 
	1    0    0    -1  
$EndComp
$Comp
L power:GNDA #PWR0153
U 1 1 5E9E2358
P 8400 900
F 0 "#PWR0153" H 8400 650 50  0001 C CNN
F 1 "GNDA" V 8405 773 50  0000 R CNN
F 2 "" H 8400 900 50  0001 C CNN
F 3 "" H 8400 900 50  0001 C CNN
	1    8400 900 
	0    1    1    0   
$EndComp
$Comp
L power:GNDA #PWR0154
U 1 1 5E9E27C0
P 8400 700
F 0 "#PWR0154" H 8400 450 50  0001 C CNN
F 1 "GNDA" V 8405 573 50  0000 R CNN
F 2 "" H 8400 700 50  0001 C CNN
F 3 "" H 8400 700 50  0001 C CNN
	1    8400 700 
	0    1    1    0   
$EndComp
$Comp
L power:+3.3VA #PWR0155
U 1 1 5E9E3173
P 8400 800
F 0 "#PWR0155" H 8400 650 50  0001 C CNN
F 1 "+3.3VA" V 8415 927 50  0000 L CNN
F 2 "" H 8400 800 50  0001 C CNN
F 3 "" H 8400 800 50  0001 C CNN
	1    8400 800 
	0    -1   1    0   
$EndComp
$Comp
L power:+10V #PWR0156
U 1 1 5E9E4EE1
P 8400 1000
F 0 "#PWR0156" H 8400 850 50  0001 C CNN
F 1 "+10V" H 8415 1173 50  0000 C CNN
F 2 "" H 8400 1000 50  0001 C CNN
F 3 "" H 8400 1000 50  0001 C CNN
	1    8400 1000
	0    -1   -1   0   
$EndComp
$Comp
L Connector_Generic:Conn_01x01 J6
U 1 1 5E9EC760
P 7100 2250
F 0 "J6" H 7180 2292 50  0000 L CNN
F 1 "Vout internal" H 7180 2201 50  0000 L CNN
F 2 "TestPoint:TestPoint_Pad_3.0x3.0mm" H 7100 2250 50  0001 C CNN
F 3 "~" H 7100 2250 50  0001 C CNN
	1    7100 2250
	1    0    0    -1  
$EndComp
$Comp
L Device:AD8067 U12
U 1 1 5EA0031E
P 7500 2850
F 0 "U12" H 7600 3150 50  0000 L CNN
F 1 "AD8065" H 7500 3050 50  0000 L CNN
F 2 "Package_TO_SOT_SMD:SOT-23-5" H 7400 2650 50  0001 L CNN
F 3 "http://ww1.microchip.com/downloads/en/DeviceDoc/22141b.pdf" H 7650 3000 50  0001 C CNN
	1    7500 2850
	1    0    0    -1  
$EndComp
$Comp
L power:+10V #PWR0157
U 1 1 5EA07943
P 7400 2550
F 0 "#PWR0157" H 7400 2400 50  0001 C CNN
F 1 "+10V" H 7415 2723 50  0000 C CNN
F 2 "" H 7400 2550 50  0001 C CNN
F 3 "" H 7400 2550 50  0001 C CNN
	1    7400 2550
	1    0    0    -1  
$EndComp
$Comp
L power:GNDA #PWR0158
U 1 1 5EA0910F
P 7400 3150
F 0 "#PWR0158" H 7400 2900 50  0001 C CNN
F 1 "GNDA" H 7405 2977 50  0000 C CNN
F 2 "" H 7400 3150 50  0001 C CNN
F 3 "" H 7400 3150 50  0001 C CNN
	1    7400 3150
	1    0    0    -1  
$EndComp
Wire Wire Line
	7200 2750 6900 2750
Wire Wire Line
	6900 2750 6900 2250
Connection ~ 6900 2250
Wire Wire Line
	7800 2850 7800 3100
Wire Wire Line
	7800 3100 7200 3100
Wire Wire Line
	7200 3100 7200 2950
$Comp
L Connector:Conn_Coaxial J7
U 1 1 5EA12F08
P 8200 2850
F 0 "J7" H 8300 2825 50  0000 L CNN
F 1 "Vout" H 8300 2734 50  0000 L CNN
F 2 "Connector_Coaxial:SMA_Molex_73251-1153_EdgeMount_Horizontal" H 8200 2850 50  0001 C CNN
F 3 " ~" H 8200 2850 50  0001 C CNN
	1    8200 2850
	1    0    0    -1  
$EndComp
$Comp
L power:GNDA #PWR0159
U 1 1 5EA17373
P 8200 3050
F 0 "#PWR0159" H 8200 2800 50  0001 C CNN
F 1 "GNDA" H 8205 2877 50  0000 C CNN
F 2 "" H 8200 3050 50  0001 C CNN
F 3 "" H 8200 3050 50  0001 C CNN
	1    8200 3050
	1    0    0    -1  
$EndComp
$Comp
L Device:R_Small R20
U 1 1 5EA183BF
P 7900 2850
F 0 "R20" V 7704 2850 50  0000 C CNN
F 1 "50" V 7795 2850 50  0000 C CNN
F 2 "Resistor_SMD:R_0402_1005Metric" H 7900 2850 50  0001 C CNN
F 3 "~" H 7900 2850 50  0001 C CNN
	1    7900 2850
	0    -1   1    0   
$EndComp
Connection ~ 7800 2850
$Comp
L Device:C_Small C11
U 1 1 5EA23BBA
P 7650 850
F 0 "C11" H 7742 896 50  0000 L CNN
F 1 "10n" H 7742 805 50  0000 L CNN
F 2 "Resistor_SMD:R_0402_1005Metric" H 7650 850 50  0001 C CNN
F 3 "~" H 7650 850 50  0001 C CNN
	1    7650 850 
	1    0    0    -1  
$EndComp
$Comp
L power:GNDA #PWR0160
U 1 1 5EA23BC0
P 7650 950
F 0 "#PWR0160" H 7650 700 50  0001 C CNN
F 1 "GNDA" H 7655 777 50  0000 C CNN
F 2 "" H 7650 950 50  0001 C CNN
F 3 "" H 7650 950 50  0001 C CNN
	1    7650 950 
	1    0    0    -1  
$EndComp
$Comp
L power:+10V #PWR0161
U 1 1 5EA23BC6
P 7650 750
F 0 "#PWR0161" H 7650 600 50  0001 C CNN
F 1 "+10V" H 7665 923 50  0000 C CNN
F 2 "" H 7650 750 50  0001 C CNN
F 3 "" H 7650 750 50  0001 C CNN
	1    7650 750 
	1    0    0    -1  
$EndComp
Connection ~ 6500 2250
$Comp
L Device:Q_NPN_EBEC U11
U 1 1 5E8A583B
P 6450 2450
F 0 "U11" H 6658 2496 50  0000 L CNN
F 1 "BFP420" H 6658 2405 50  0000 L CNN
F 2 "Package_TO_SOT_SMD:SOT-343_SC-70-4" H 6250 2600 50  0001 C CNN
F 3 "" H 6250 2600 50  0001 C CNN
	1    6450 2450
	1    0    0    -1  
$EndComp
$Comp
L Device:Q_NPN_BECE U9
U 1 1 5EACF929
P 5750 2650
F 0 "U9" H 5958 2696 50  0000 L CNN
F 1 "BFU730F" H 5958 2605 50  0000 L CNN
F 2 "Package_TO_SOT_SMD:SOT-343_SC-70-4" H 5550 2800 50  0001 C CNN
F 3 "" H 5550 2800 50  0001 C CNN
	1    5750 2650
	1    0    0    -1  
$EndComp
Connection ~ 5500 2650
Wire Wire Line
	5150 2550 5150 2650
Wire Wire Line
	2800 1850 2800 1950
$Comp
L Device:Q_NPN_BECE U10
U 1 1 5EADE03F
P 5750 4050
F 0 "U10" H 5958 4096 50  0000 L CNN
F 1 "BFU730F" H 5958 4005 50  0000 L CNN
F 2 "Package_TO_SOT_SMD:SOT-343_SC-70-4" H 5550 4200 50  0001 C CNN
F 3 "" H 5550 4200 50  0001 C CNN
	1    5750 4050
	1    0    0    -1  
$EndComp
$Comp
L Device:Q_NPN_BECE U7
U 1 1 5EADE6D3
P 5100 3450
F 0 "U7" H 5308 3496 50  0000 L CNN
F 1 "BFU730F" H 5308 3405 50  0000 L CNN
F 2 "Package_TO_SOT_SMD:SOT-343_SC-70-4" H 4900 3600 50  0001 C CNN
F 3 "" H 4900 3600 50  0001 C CNN
	1    5100 3450
	1    0    0    -1  
$EndComp
$Comp
L Device:Q_NPN_BECE U2
U 1 1 5EADEF8E
P 2750 2800
F 0 "U2" H 2958 2846 50  0000 L CNN
F 1 "BFU730F" H 2958 2755 50  0000 L CNN
F 2 "Package_TO_SOT_SMD:SOT-343_SC-70-4" H 2550 2950 50  0001 C CNN
F 3 "" H 2550 2950 50  0001 C CNN
	1    2750 2800
	1    0    0    -1  
$EndComp
$Comp
L Device:Q_NPN_BECE U4
U 1 1 5EAE1655
P 3400 1950
F 0 "U4" H 3608 1996 50  0000 L CNN
F 1 "BFU730F" H 3608 1905 50  0000 L CNN
F 2 "Package_TO_SOT_SMD:SOT-343_SC-70-4" H 3200 2100 50  0001 C CNN
F 3 "" H 3200 2100 50  0001 C CNN
	1    3400 1950
	1    0    0    -1  
$EndComp
Connection ~ 3150 1950
$Comp
L Device:Q_NPN_BECE U1
U 1 1 5EAE1F69
P 2550 1950
F 0 "U1" H 2757 1996 50  0000 L CNN
F 1 "BFU730F" H 2757 1905 50  0000 L CNN
F 2 "Package_TO_SOT_SMD:SOT-343_SC-70-4" H 2350 2100 50  0001 C CNN
F 3 "" H 2350 2100 50  0001 C CNN
	1    2550 1950
	-1   0    0    -1  
$EndComp
Connection ~ 2800 1950
Wire Wire Line
	2800 1950 2800 2600
Connection ~ 2500 1750
$Comp
L Device:Q_NPN_BECE U3
U 1 1 5EAE2899
P 3200 2800
F 0 "U3" H 3407 2846 50  0000 L CNN
F 1 "BFU730F" H 3407 2755 50  0000 L CNN
F 2 "Package_TO_SOT_SMD:SOT-343_SC-70-4" H 3000 2950 50  0001 C CNN
F 3 "" H 3000 2950 50  0001 C CNN
	1    3200 2800
	-1   0    0    -1  
$EndComp
$Comp
L Device:Q_NPN_BECE U5
U 1 1 5EAE3213
P 3700 3000
F 0 "U5" H 3907 3046 50  0000 L CNN
F 1 "BFU730F" H 3907 2955 50  0000 L CNN
F 2 "Package_TO_SOT_SMD:SOT-343_SC-70-4" H 3500 3150 50  0001 C CNN
F 3 "" H 3500 3150 50  0001 C CNN
	1    3700 3000
	-1   0    0    -1  
$EndComp
Connection ~ 3650 2800
$Comp
L Device:Q_NPN_BECE U6
U 1 1 5EAE394A
P 4900 2650
F 0 "U6" H 5107 2696 50  0000 L CNN
F 1 "BFU730F" H 5107 2605 50  0000 L CNN
F 2 "Package_TO_SOT_SMD:SOT-343_SC-70-4" H 4700 2800 50  0001 C CNN
F 3 "" H 4700 2800 50  0001 C CNN
	1    4900 2650
	-1   0    0    -1  
$EndComp
Connection ~ 5150 2650
Wire Wire Line
	5150 2650 5150 3250
$Comp
L Device:Q_NPN_BECE U8
U 1 1 5EAE42E6
P 5550 3450
F 0 "U8" H 5757 3496 50  0000 L CNN
F 1 "BFU730F" H 5757 3405 50  0000 L CNN
F 2 "Package_TO_SOT_SMD:SOT-343_SC-70-4" H 5350 3600 50  0001 C CNN
F 3 "" H 5350 3600 50  0001 C CNN
	1    5550 3450
	-1   0    0    -1  
$EndComp
Connection ~ 5800 3450
Text Label 8000 2850 1    50   ~ 0
AOUT
$Comp
L Device:R_Small R21
U 1 1 5E88A750
P 6200 2550
F 0 "R21" V 6004 2550 50  0000 C CNN
F 1 "1k" V 6095 2550 50  0000 C CNN
F 2 "Resistor_SMD:R_0402_1005Metric" H 6200 2550 50  0001 C CNN
F 3 "~" H 6200 2550 50  0001 C CNN
	1    6200 2550
	1    0    0    1   
$EndComp
$Comp
L power:GNDA #PWR0162
U 1 1 5E88B08A
P 6200 2650
F 0 "#PWR0162" H 6200 2400 50  0001 C CNN
F 1 "GNDA" H 6205 2477 50  0000 C CNN
F 2 "" H 6200 2650 50  0001 C CNN
F 3 "" H 6200 2650 50  0001 C CNN
	1    6200 2650
	1    0    0    -1  
$EndComp
Connection ~ 6200 2450
$Comp
L Device:Q_NPN_EBEC U13
U 1 1 5E892723
P 6950 2050
F 0 "U13" H 7158 2096 50  0000 L CNN
F 1 "BFP420" H 7158 2005 50  0000 L CNN
F 2 "Package_TO_SOT_SMD:SOT-343_SC-70-4" H 6750 2200 50  0001 C CNN
F 3 "" H 6750 2200 50  0001 C CNN
	1    6950 2050
	-1   0    0    -1  
$EndComp
Wire Wire Line
	6800 2250 6500 2250
$Comp
L power:+10V #PWR0163
U 1 1 5E89312D
P 6900 1850
F 0 "#PWR0163" H 6900 1700 50  0001 C CNN
F 1 "+10V" H 6915 2023 50  0000 C CNN
F 2 "" H 6900 1850 50  0001 C CNN
F 3 "" H 6900 1850 50  0001 C CNN
	1    6900 1850
	1    0    0    -1  
$EndComp
Wire Wire Line
	6900 2250 6800 2250
Connection ~ 6800 2250
$Comp
L Device:Q_NPN_EBEC U14
U 1 1 5E8AB40F
P 7450 1850
F 0 "U14" H 7658 1896 50  0000 L CNN
F 1 "BFP420" H 7658 1805 50  0000 L CNN
F 2 "Package_TO_SOT_SMD:SOT-343_SC-70-4" H 7250 2000 50  0001 C CNN
F 3 "" H 7250 2000 50  0001 C CNN
	1    7450 1850
	-1   0    0    -1  
$EndComp
Wire Wire Line
	7200 2050 7300 2050
Connection ~ 7300 2050
Wire Wire Line
	7300 2050 7400 2050
$Comp
L power:+10V #PWR0164
U 1 1 5E8AEB06
P 7400 1650
F 0 "#PWR0164" H 7400 1500 50  0001 C CNN
F 1 "+10V" H 7415 1823 50  0000 C CNN
F 2 "" H 7400 1650 50  0001 C CNN
F 3 "" H 7400 1650 50  0001 C CNN
	1    7400 1650
	1    0    0    -1  
$EndComp
$Comp
L Device:R_Small R22
U 1 1 5E8AEF92
P 7500 2050
F 0 "R22" V 7304 2050 50  0000 C CNN
F 1 "3.3k" V 7395 2050 50  0000 C CNN
F 2 "Resistor_SMD:R_0402_1005Metric" H 7500 2050 50  0001 C CNN
F 3 "~" H 7500 2050 50  0001 C CNN
	1    7500 2050
	0    1    -1   0   
$EndComp
Connection ~ 7400 2050
$Comp
L power:GNDA #PWR0165
U 1 1 5E8AF9D6
P 7600 2050
F 0 "#PWR0165" H 7600 1800 50  0001 C CNN
F 1 "GNDA" H 7605 1877 50  0000 C CNN
F 2 "" H 7600 2050 50  0001 C CNN
F 3 "" H 7600 2050 50  0001 C CNN
	1    7600 2050
	0    -1   -1   0   
$EndComp
$Comp
L Device:R_Small R23
U 1 1 5E8B0421
P 7700 1750
F 0 "R23" V 7504 1750 50  0000 C CNN
F 1 "1k" V 7595 1750 50  0000 C CNN
F 2 "Resistor_SMD:R_0402_1005Metric" H 7700 1750 50  0001 C CNN
F 3 "~" H 7700 1750 50  0001 C CNN
	1    7700 1750
	-1   0    0    -1  
$EndComp
$Comp
L power:+10V #PWR0166
U 1 1 5E8B19C3
P 7700 1650
F 0 "#PWR0166" H 7700 1500 50  0001 C CNN
F 1 "+10V" H 7715 1823 50  0000 C CNN
F 2 "" H 7700 1650 50  0001 C CNN
F 3 "" H 7700 1650 50  0001 C CNN
	1    7700 1650
	1    0    0    -1  
$EndComp
$Comp
L Device:Q_NPN_EBEC U15
U 1 1 5E8B34EF
P 8350 2050
F 0 "U15" H 8558 2096 50  0000 L CNN
F 1 "BFP420" H 8558 2005 50  0000 L CNN
F 2 "Package_TO_SOT_SMD:SOT-343_SC-70-4" H 8150 2200 50  0001 C CNN
F 3 "" H 8150 2200 50  0001 C CNN
	1    8350 2050
	-1   0    0    -1  
$EndComp
$Comp
L Device:Q_NPN_EBEC U16
U 1 1 5E8B4284
P 8850 2250
F 0 "U16" H 9058 2296 50  0000 L CNN
F 1 "BFP420" H 9058 2205 50  0000 L CNN
F 2 "Package_TO_SOT_SMD:SOT-343_SC-70-4" H 8650 2400 50  0001 C CNN
F 3 "" H 8650 2400 50  0001 C CNN
	1    8850 2250
	-1   0    0    -1  
$EndComp
$Comp
L power:GNDA #PWR0167
U 1 1 5E8B5D82
P 8200 2250
F 0 "#PWR0167" H 8200 2000 50  0001 C CNN
F 1 "GNDA" H 8205 2077 50  0000 C CNN
F 2 "" H 8200 2250 50  0001 C CNN
F 3 "" H 8200 2250 50  0001 C CNN
	1    8200 2250
	1    0    0    -1  
$EndComp
$Comp
L power:GNDA #PWR0168
U 1 1 5E8B6573
P 8300 2250
F 0 "#PWR0168" H 8300 2000 50  0001 C CNN
F 1 "GNDA" H 8305 2077 50  0000 C CNN
F 2 "" H 8300 2250 50  0001 C CNN
F 3 "" H 8300 2250 50  0001 C CNN
	1    8300 2250
	1    0    0    -1  
$EndComp
$Comp
L power:GNDA #PWR0169
U 1 1 5E8B6AEC
P 8700 2450
F 0 "#PWR0169" H 8700 2200 50  0001 C CNN
F 1 "GNDA" H 8705 2277 50  0000 C CNN
F 2 "" H 8700 2450 50  0001 C CNN
F 3 "" H 8700 2450 50  0001 C CNN
	1    8700 2450
	1    0    0    -1  
$EndComp
$Comp
L power:GNDA #PWR0170
U 1 1 5E8B7107
P 8800 2450
F 0 "#PWR0170" H 8800 2200 50  0001 C CNN
F 1 "GNDA" H 8805 2277 50  0000 C CNN
F 2 "" H 8800 2450 50  0001 C CNN
F 3 "" H 8800 2450 50  0001 C CNN
	1    8800 2450
	1    0    0    -1  
$EndComp
Wire Wire Line
	8800 2050 8600 2050
Wire Wire Line
	8300 1850 7700 1850
Connection ~ 7700 1850
$Comp
L Device:R_Small R24
U 1 1 5E8BAC58
P 8800 1950
F 0 "R24" V 8604 1950 50  0000 C CNN
F 1 "1k" V 8695 1950 50  0000 C CNN
F 2 "Resistor_SMD:R_0402_1005Metric" H 8800 1950 50  0001 C CNN
F 3 "~" H 8800 1950 50  0001 C CNN
	1    8800 1950
	-1   0    0    -1  
$EndComp
Connection ~ 8800 2050
$Comp
L Device:R_Small R25
U 1 1 5E8BB1A7
P 9200 2250
F 0 "R25" V 9004 2250 50  0000 C CNN
F 1 "1k" V 9095 2250 50  0000 C CNN
F 2 "Resistor_SMD:R_0402_1005Metric" H 9200 2250 50  0001 C CNN
F 3 "~" H 9200 2250 50  0001 C CNN
	1    9200 2250
	0    1    -1   0   
$EndComp
$Comp
L power:+3.3VA #PWR0171
U 1 1 5E8BC696
P 8800 1850
F 0 "#PWR0171" H 8800 1700 50  0001 C CNN
F 1 "+3.3VA" H 8815 2023 50  0000 C CNN
F 2 "" H 8800 1850 50  0001 C CNN
F 3 "" H 8800 1850 50  0001 C CNN
	1    8800 1850
	1    0    0    -1  
$EndComp
Text Label 9300 2250 0    50   ~ 0
Reset
$EndSCHEMATC
